workers,cheaper,threads,concurrency,time_taken_s,reqs_per_sec,time_per_req_ms,conc_time_per_req_ms,longest_req_ms,cpu_percent,memory_mb,network_out_mb,processes
20,8,1,1,31.71,4.73,211.399,211.399,1167.0,112.21,254.0,82.5,0
20,8,1,10,7.482,20.05,498.786,49.879,1502.0,81.42,328.1,85.2,0
20,8,1,50,7.78,19.28,2593.18,51.864,3723.0,112.49,329.3,87.7,0
20,8,1,100,7.965,18.83,5310.269,53.103,6337.0,112.57,329.4,90.3,0
20,8,2,1,32.209,4.66,214.727,214.727,765.0,111.61,251.6,92.9,0
20,8,2,10,8.453,17.75,563.515,56.352,2126.0,79.26,258.1,95.7,0
20,8,2,50,10.124,14.82,3374.767,67.495,6489.0,72.99,399.8,98.4,0
20,8,2,100,9.534,15.73,6356.211,63.562,7881.0,112.01,384.4,101.0,0
20,16,1,1,35.169,4.27,234.462,234.462,947.0,111.78,409.8,104.0,0
20,16,1,10,8.338,17.99,555.887,55.589,2502.0,111.72,402.5,107.0,0
20,16,1,50,8.315,18.04,2771.636,55.433,3996.0,111.8,476.5,109.0,0
20,16,1,100,7.891,19.01,5260.595,52.606,6886.0,112.27,475.2,112.0,0
20,16,2,1,35.153,4.27,234.354,234.354,762.0,111.67,401.4,115.0,0
20,16,2,10,8.042,18.65,536.111,53.611,2127.0,112.23,400.8,117.0,0
20,16,2,50,
